Élections législatives – Enquêtes quantitatives
…
On constate que nos opérations sur les variables en pourcentage se sont bien déroulées, elles n’ont pas introduit de non-réponse. Par contre, il y a visiblement un problème avec deux autres variables. Isolons les lignes qui contiennent une valeur manquante pour code_commune et code_departement. Il s’avèrent que ce sont toutes des (et toutes les) communes corses.

d2 |> 
  filter(is.na(code_commune))

# A tibble: 575 × 18
   code_departement libelle_departement code_commune libelle_commune   inscrits
              <dbl> <chr>                      <dbl> <chr>                <dbl>
 1               NA Corse-du-Sud                  NA Afa                   2684
 2               NA Corse-du-Sud                  NA Ajaccio              37185
 3               NA Corse-du-Sud                  NA Alata                 2919
 4               NA Corse-du-Sud                  NA Albitreccia           1414
 5               NA Corse-du-Sud                  NA Altagène                82
 6               NA Corse-du-Sud                  NA Ambiegna                76
 7               NA Corse-du-Sud                  NA Appietto              1483
 8               NA Corse-du-Sud                  NA Arbellara              156
 9               NA Corse-du-Sud                  NA Arbori                  85
10               NA Corse-du-Sud                  NA Argiusta-Moriccio      101
# ℹ 565 more rows
# ℹ 13 more variables: votants <dbl>, percent_votants <dbl>, abstentions <dbl>,
#   percent_abstentions <dbl>, exprimes <dbl>, percent_exprimes_inscrits <dbl>,
#   percent_exprimes_votants <dbl>, blancs <dbl>,
#   percent_blancs_inscrits <dbl>, percent_blancs_votants <dbl>, nuls <dbl>,
#   percent_nuls_inscrits <dbl>, percent_nuls_votants <dbl>
…
legislatives_clean = legislatives_2024_t1 |> 
  mutate(code_commune = if_else(str_length(code_commune) < 5,
                                paste0("0", code_commune),
                                code_commune))

Maintenant que la variable code_commune est rigoureusement identique dans les deux dataframes, identifions les observations (les communes) éventuellement présentes dans l’un, mais pas dans l’autre, à l’aide de la fonction anti_join.

D’abord, les communes qui sont dans notre fichier électoral, mais pas dans notre fichier cartographique. À part une poignée de communes métropolitaines qui ont dû apparaître (fusionner) dans l’intervalle entre la publication du COG 2024 et les législatives, il s’agit de communes des collectivités d’outre-mer et des communes où sont inscrits des Français de l’étranger.

anti_join(legislatives_clean, communes_sf)

Joining with `by = join_by(code_commune)`

# A tibble: 303 × 18
   code_departement libelle_departement    code_commune libelle_commune inscrits
   <chr>            <chr>                  <chr>        <chr>              <dbl>
 1 2                Aisne                  02899        Cormicy               31
 2 14               Calvados               14513        Tessy-Bocage         356
 3 44               Loire-Atlantique       44060        Ingrandes-le-F…      749
 4 49               Maine-et-Loire         49144        Vallons-de-l'E…      811
 5 975              Saint-Pierre-et-Mique… 97501        Miquelon-Langl…      503
 6 975              Saint-Pierre-et-Mique… 97502        Saint-Pierre        4566
 7 986              Wallis et Futuna       98601        Wallis-Et-Futu…     9031
 8 987              Polynésie française    98711        Anaa                 756
 9 987              Polynésie française    98712        Arue                7183
10 987              Polynésie française    98713        Arutua              1555
# ℹ 293 more rows
# ℹ 13 more variables: votants <dbl>, percent_votants <dbl>, abstentions <dbl>,
#   percent_abstentions <dbl>, exprimes <dbl>, percent_exprimes_inscrits <dbl>,
#   percent_exprimes_votants <dbl>, blancs <dbl>,
#   percent_blancs_inscrits <dbl>, percent_blancs_votants <dbl>, nuls <dbl>,
#   percent_nuls_inscrits <dbl>, percent_nuls_votants <dbl>
…
