Enquêtes quantitatives – Choropleth maps
…
Population

Policiers municipaux

Voisins vigilants

Contours des départements

Join

Fines

verbalisations

# A tibble: 101 × 2
   code  verbalisations
   <chr>          <dbl>
 1 01              8036
 2 02             11532
 3 03              3820
 4 04              2341
 5 05              1974
 6 06             40480
 7 07              3939
 8 08              4032
 9 09              2468
10 10              5212
# ℹ 91 more rows

Population

population

# A tibble: 101 × 3
   code  pop_adulte pop_totale
   <chr>      <dbl>      <dbl>
 1 01        528411     657856
 2 02        431728     529374
 3 03        285728     335628
 4 04        139754     165451
 5 05        118744     140605
 6 06        925569    1097410
 7 07        275785     329325
 8 08        222569     269701
 9 09        130458     153954
10 10        255060     311435
# ℹ 91 more rows
…
05118744140605

069255691097410

07275785329325

08222569269701

09130458153954

Syntax

left_join(verbalisations, population, by = "code")

# A tibble: 101 × 4
   code  verbalisations pop_adulte pop_totale
   <chr>          <dbl>      <dbl>      <dbl>
 1 01              8036     528411     657856
 2 02             11532     431728     529374
 3 03              3820     285728     335628
 4 04              2341     139754     165451
 5 05              1974     118744     140605
 6 06             40480     925569    1097410
 7 07              3939     275785     329325
 8 08              4032     222569     269701
 9 09              2468     130458     153954
10 10              5212     255060     311435
# ℹ 91 more rows
…
